Copyright 1986-2018 Xilinx, Inc. All Rights Reserved.
--------------------------------------------------------------------------------------------------------------------------------------------------------------
| Tool Version : Vivado v.2018.2 (win64) Build 2258646 Thu Jun 14 20:03:12 MDT 2018
| Date         : Mon Jan 21 17:03:23 2019
| Host         : DESKTOP-6V3OCVS running 64-bit major release  (build 9200)
| Command      : report_methodology -file Maq_cafe_methodology_drc_routed.rpt -pb Maq_cafe_methodology_drc_routed.pb -rpx Maq_cafe_methodology_drc_routed.rpx
| Design       : Maq_cafe
| Device       : xc7a100tcsg324-1
| Speed File   : -1
| Design State : Routed
--------------------------------------------------------------------------------------------------------------------------------------------------------------

Report Methodology

Table of Contents
-----------------
1. REPORT SUMMARY
2. REPORT DETAILS

1. REPORT SUMMARY
-----------------
            Netlist: netlist
          Floorplan: design_1
      Design limits: <entire design considered>
             Max violations: <unlimited>
             Violations found: 25
+-----------+----------+-------------------------------+------------+
| Rule      | Severity | Description                   | Violations |
+-----------+----------+-------------------------------+------------+
| TIMING-17 | Warning  | Non-clocked sequential cell   | 8          |
| TIMING-18 | Warning  | Missing input or output delay | 17         |
+-----------+----------+-------------------------------+------------+

2. REPORT DETAILS
-----------------
TIMING-17#1 Warning
Non-clocked sequential cell  
The clock pin I_display/I_state_change/contador_reg[0]/C is not reached by a timing clock
Related violations: <none>

TIMING-17#2 Warning
Non-clocked sequential cell  
The clock pin I_display/I_state_change/contador_reg[1]/C is not reached by a timing clock
Related violations: <none>

TIMING-17#3 Warning
Non-clocked sequential cell  
The clock pin I_display/I_state_change/state_reg[0]/C is not reached by a timing clock
Related violations: <none>

TIMING-17#4 Warning
Non-clocked sequential cell  
The clock pin I_display/I_state_change/state_reg[1]/C is not reached by a timing clock
Related violations: <none>

TIMING-17#5 Warning
Non-clocked sequential cell  
The clock pin I_filtro/fil[0].I_antirrebote/temp_reg/C is not reached by a timing clock
Related violations: <none>

TIMING-17#6 Warning
Non-clocked sequential cell  
The clock pin I_filtro/fil[1].I_antirrebote/temp_reg/C is not reached by a timing clock
Related violations: <none>

TIMING-17#7 Warning
Non-clocked sequential cell  
The clock pin I_filtro/fil[2].I_antirrebote/temp_reg/C is not reached by a timing clock
Related violations: <none>

TIMING-17#8 Warning
Non-clocked sequential cell  
The clock pin I_filtro/fil[3].I_antirrebote/temp_reg/C is not reached by a timing clock
Related violations: <none>

TIMING-18#1 Warning
Missing input or output delay  
An input delay is missing on reset relative to clock(s) sys_clc_pin
Related violations: <none>

TIMING-18#2 Warning
Missing input or output delay  
An output delay is missing on led_fin[0] relative to clock(s) sys_clc_pin
Related violations: <none>

TIMING-18#3 Warning
Missing input or output delay  
An output delay is missing on led_fin[1] relative to clock(s) sys_clc_pin
Related violations: <none>

TIMING-18#4 Warning
Missing input or output delay  
An output delay is missing on led_fin[2] relative to clock(s) sys_clc_pin
Related violations: <none>

TIMING-18#5 Warning
Missing input or output delay  
An output delay is missing on led_fin[3] relative to clock(s) sys_clc_pin
Related violations: <none>

TIMING-18#6 Warning
Missing input or output delay  
An output delay is missing on led_fin[4] relative to clock(s) sys_clc_pin
Related violations: <none>

TIMING-18#7 Warning
Missing input or output delay  
An output delay is missing on led_fin[5] relative to clock(s) sys_clc_pin
Related violations: <none>

TIMING-18#8 Warning
Missing input or output delay  
An output delay is missing on led_fin[6] relative to clock(s) sys_clc_pin
Related violations: <none>

TIMING-18#9 Warning
Missing input or output delay  
An output delay is missing on led_fin[7] relative to clock(s) sys_clc_pin
Related violations: <none>

TIMING-18#10 Warning
Missing input or output delay  
An output delay is missing on salida_fin[0] relative to clock(s) sys_clc_pin
Related violations: <none>

TIMING-18#11 Warning
Missing input or output delay  
An output delay is missing on salida_fin[1] relative to clock(s) sys_clc_pin
Related violations: <none>

TIMING-18#12 Warning
Missing input or output delay  
An output delay is missing on salida_fin[2] relative to clock(s) sys_clc_pin
Related violations: <none>

TIMING-18#13 Warning
Missing input or output delay  
An output delay is missing on salida_fin[3] relative to clock(s) sys_clc_pin
Related violations: <none>

TIMING-18#14 Warning
Missing input or output delay  
An output delay is missing on salida_fin[4] relative to clock(s) sys_clc_pin
Related violations: <none>

TIMING-18#15 Warning
Missing input or output delay  
An output delay is missing on salida_fin[5] relative to clock(s) sys_clc_pin
Related violations: <none>

TIMING-18#16 Warning
Missing input or output delay  
An output delay is missing on salida_fin[6] relative to clock(s) sys_clc_pin
Related violations: <none>

TIMING-18#17 Warning
Missing input or output delay  
An output delay is missing on salida_fin[7] relative to clock(s) sys_clc_pin
Related violations: <none>


